State,2010,2011,2012,2013,2014,2015,2016
Finland,7.053497676,6.847406326,6.581156469,6.903110324,7.121725297,6.277478339,6.234267477
Australia,5.937561281,5.880918943,5.981776157,6.028237909,5.933055205,6.109837979,6.126806421
Estonia,8.207549989,7.888997497,7.131966468,8.187581003,8.722447982,6.044276118,5.928305245
New Zealand,5.419706089,5.420308424,5.474149386,5.459395797,5.525429017,5.533857524,5.525446595
Sweden,5.436057279,5.287009296,5.161341523,5.579372123,5.862179314,5.222487818,5.195282483
Kiribati,3.4420423,3.366325147,3.29089287,3.290815768,3.40083002,4.050094212,4.08635963
Greenland,4.891647643,4.955245749,4.902755307,5.173268153,5.207844433,4.119723625,4.0711839
Tonga,3.903498192,3.868612218,3.954435058,3.983512903,3.978563842,4.016892769,3.993593926
Samoa,3.432086805,3.326989665,3.412159227,3.535518478,3.674938049,3.85170228,3.857072798
American Samoa,3.368691428,3.255183638,3.377270828,3.457884807,3.634140139,3.790378501,3.763411508
